{
  "type": "forge:ore_shaped",
  "result": {
    "item": "automatuum:refined_oil_gen",
    "count": 1,
    "data": 0
  },
  "pattern": [
    "SOS",
    "STS",
    "SFS"
  ],
  "key": {
    "S": {
      "type": "forge:ore_dict",
      "ore": "plateSteel"
    },
    "O": {
      "item": "#refined_oil_bucket"
    },
    "T": {
      "type": "forge:ore_dict",
      "ore": "cableToparite"
    },
    "F": {
      "item": "minecraft:furnace"
    }
  }
}