{
  "type": "forge:ore_shaped",
  "result": {
    "item": "automatuum:feros_axe",
    "count": 1,
    "data": 0
  },
  "pattern": [
    "II ",
    "IS ",
    " S "
  ],
  "key": {
    "I": {
      "type": "forge:ore_dict",
      "ore": "chunkFeros"
    },
    "S": {
      "type": "forge:ore_dict",
      "ore": "stickFeros"
    }
  }
}