{
  "type": "forge:ore_shaped",
  "result": {
    "item": "automatuum:finest_refining_sieve",
    "count": 1,
    "data": 0
  },
  "pattern": [
    "AAA",
    "AAA",
    "AAA"
  ],
  "key": {
    "A": {
      "type": "forge:ore_dict",
      "ore": "sieveFiner"
    }
  }
}