{
  "type": "forge:ore_shaped",
  "result": {
    "item": "automatuum:wooden_barrel",
    "count": 1,
    "data": 0
  },
  "pattern": [
    "W W",
    "W W",
    "WSW"
  ],
  "key": {
    "W": {
      "type": "forge:ore_dict",
      "ore": "plankWood"
    },
    "S": {
      "type": "forge:ore_dict",
      "ore": "slabWood"
    }
  }
}