{
  "type": "forge:ore_shaped",
  "result": {
    "item": "automatuum:sapphirite_block",
    "count": 1,
    "data": 0
  },
  "pattern": [
    "III",
    "III",
    "III"
  ],
  "key": {
    "I": {
      "type": "forge:ore_dict",
      "ore": "ingotSapphirite"
    }
  }
}