{
  "type": "forge:ore_shaped",
  "result":
  {
    "item": "automatuum:obsidian_stick",
    "count": 4,
    "data": 0
  },
  "pattern":
  [
    "B",
    "B"
  ],
  "key":
  {
    "B": {"type": "forge:ore_dict", "ore": "obsidian"}
  }
}