{
  "type": "forge:ore_shaped",
  "result": {
    "item": "automatuum:oil_refiner",
    "count": 1,
    "data": 0
  },
  "pattern": [
    "IHI",
    "ICI",
    "IBI"
  ],
  "key": {
    "C": {
      "type": "forge:ore_dict",
      "ore": "cableToparite"
    },
    "I": {
      "type": "forge:ore_dict",
      "ore": "ingotIron"
    },
    "H": {
      "item": "minecraft:hopper"
    },
    "B": {
      "item": "minecraft:bucket"
    }
  }
}