{
  "type": "forge:ore_shaped",
  "result": {
    "item": "automatuum:laranium_pickaxe",
    "count": 1,
    "data": 0
  },
  "pattern": [
    "III",
    " S ",
    " S "
  ],
  "key": {
    "I": {
      "type": "forge:ore_dict",
      "ore": "ingotLaranium"
    },
    "S": {
      "type": "forge:ore_dict",
      "ore": "stickObsidian"
    }
  }
}