{
  "type": "forge:ore_shapeless",
  "result":
  {
    "item": "automatuum:laranium_nugget",
    "count": 9,
    "data": 0
  },
  "ingredients":
  [
    {"type": "forge:ore_dict", "ore": "ingotLaranium"}
  ]
}