{
  "forge_marker": 1,
  "defaults":
  {
    "model": "cube_all",
    "transform": "forge:default-block"
  },
  "variants":
  {
    "variant":
    {
      "iron":
      {
        "textures":
        {
          "all": "blocks/iron_block"
        }
      },
      "gold":
      {
        "textures":
        {
          "all": "blocks/gold_block"
        }
      },
      "diamond":
      {
        "textures":
        {
          "all": "blocks/diamond_block"
        }
      }
    }
  }
}