{
  "forge_marker": 1,
  "defaults": {
    "textures": {
      "all": "automatuum:blocks/feros_ore"
    },
    "model": "cube_all",
    "uvlock": true
  },
  "variants": {
    "normal": [{}],
    "inventory": [{}]
  }
}