{
  "forge_marker": 1,
  "defaults": {
    "textures": {
      "front": "automatuum:blocks/high_furnace_unlit",
      "back": "minecraft:blocks/iron_block",
      "side": "minecraft:blocks/iron_block",
      "up": "minecraft:blocks/iron_block",
      "down": "minecraft:blocks/iron_block",
      "north": "#front",
      "south": "#back",
      "east": "#side",
      "west": "#side",
      "particle": "#side"
    },
    "model": "cube_all",
    "uvlock": true
  },
  "variants": {
    "normal": [{}],
    "inventory": [{}],
    "facing": {
      "up": {},
      "down": {},
      "north": {"y": 0},
      "east": {"y": 90},
      "west": {"y": 270},
      "south": {"y": 180}
    }
  }
}