{
  "forge_marker": 1,
  "defaults":
  {
    "model": "half_slab",
    "transform": "forge:default-block"
  },
  "variants":
  {
    "half":
    {
      "bottom":
      {
        "model": "half_slab"
      },
      "top":
      {
        "model": "upper_slab"
      }
    },
    "variant":
    {
      "iron":
      {
        "textures":
        {
          "top": "blocks/iron_block",
          "bottom": "blocks/iron_block",
          "side": "blocks/iron_block"
        }
      },
      "gold":
      {
        "textures":
        {
          "top": "blocks/gold_block",
          "bottom": "blocks/gold_block",
          "side": "blocks/gold_block"
        }
      },
      "diamond":
      {
        "textures":
        {
          "top": "blocks/diamond_block",
          "bottom": "blocks/diamond_block",
          "side": "blocks/diamond_block"
        }
      }
    }
  }
}