{
  "type": "forge:ore_shaped",
  "result": {
    "item": "automatuum:toparite_ingot",
    "count": 1,
    "data": 0
  },
  "pattern": [
    "NNN",
    "NNN",
    "NNN"
  ],
  "key": {
    "N": {
      "type": "forge:ore_dict",
      "ore": "nuggetToparite"
    }
  }
}