{
  "type": "forge:ore_shaped",
  "result": {
    "item": "automatuum:toparite_cable",
    "count": 4,
    "data": 0
  },
  "pattern": [
    " X ",
    "XXX",
    " X "
  ],
  "key": {
    "X": {
      "type": "forge:ore_dict",
      "ore": "ingotToparite"
    }
  }
}